module goserver

go 1.13

require (
	github.com/0xAX/notificator v0.0.0-20191016112426-3962a5ea8da1 // indirect
	github.com/codegangsta/envy v0.0.0-20141216192214-4b78388c8ce4 // indirect
	github.com/codegangsta/gin v0.0.0-20171026143024-cafe2ce98974 // indirect
	github.com/gin-gonic/gin v1.6.3
	github.com/go-playground/validator/v10 v10.4.1 // indirect
	github.com/golang/protobuf v1.4.3 // indirect
	github.com/json-iterator/go v1.1.10 // indirect
	github.com/leodido/go-urn v1.2.1 // indirect
	github.com/mattn/go-shellwords v1.0.11 // indirect
	github.com/spf13/viper v1.7.1
	github.com/ugorji/go v1.2.4 // indirect
	golang.org/x/crypto v0.0.0-20201221181555-eec23a3978ad // indirect
	golang.org/x/sys v0.0.0-20210124154548-22da62e12c0c // indirect
	google.golang.org/protobuf v1.25.0 // indirect
	gopkg.in/urfave/cli.v1 v1.20.0 // indirect
	gopkg.in/yaml.v2 v2.4.0 // indirect
)
